 1.00000000e+00,-2.42278556e-01 
 1.02329299e+00,-2.47921879e-01 
 1.04712855e+00,-2.53696647e-01 
 1.07151931e+00,-2.59605921e-01 
 1.09647820e+00,-2.65652834e-01 
 1.12201845e+00,-2.71840591e-01 
 1.14815362e+00,-2.78172474e-01 
 1.17489755e+00,-2.84651838e-01 
 1.20226443e+00,-2.91282118e-01 
 1.23026877e+00,-2.98066829e-01 
 1.25892541e+00,-3.05009568e-01 
 1.28824955e+00,-3.12114014e-01 
 1.31825674e+00,-3.19383935e-01 
 1.34896288e+00,-3.26823183e-01 
 1.38038426e+00,-3.34435701e-01 
 1.41253754e+00,-3.42225526e-01 
 1.44543977e+00,-3.50196787e-01 
 1.47910839e+00,-3.58353707e-01 
 1.51356125e+00,-3.66700612e-01 
 1.54881662e+00,-3.75241925e-01 
 1.58489319e+00,-3.83982174e-01 
 1.62181010e+00,-3.92925990e-01 
 1.65958691e+00,-4.02078115e-01 
 1.69824365e+00,-4.11443400e-01 
 1.73780083e+00,-4.21026806e-01 
 1.77827941e+00,-4.30833415e-01 
 1.81970086e+00,-4.40868423e-01 
 1.86208714e+00,-4.51137148e-01 
 1.90546072e+00,-4.61645033e-01 
 1.94984460e+00,-4.72397645e-01 
 1.99526231e+00,-4.83400684e-01 
 2.04173794e+00,-4.94659979e-01 
 2.08929613e+00,-5.06181497e-01 
 2.13796209e+00,-5.17971344e-01 
 2.18776162e+00,-5.30035766e-01 
 2.23872114e+00,-5.42381156e-01 
 2.29086765e+00,-5.55014054e-01 
 2.34422882e+00,-5.67941155e-01 
 2.39883292e+00,-5.81169307e-01 
 2.45470892e+00,-5.94705518e-01 
 2.51188643e+00,-6.08556959e-01 
 2.57039578e+00,-6.22730968e-01 
 2.63026799e+00,-6.37235053e-01 
 2.69153480e+00,-6.52076897e-01 
 2.75422870e+00,-6.67264362e-01 
 2.81838293e+00,-6.82805491e-01 
 2.88403150e+00,-6.98708515e-01 
 2.95120923e+00,-7.14981857e-01 
 3.01995172e+00,-7.31634134e-01 
 3.09029543e+00,-7.48674164e-01 
 3.16227766e+00,-7.66110971e-01 
 3.23593657e+00,-7.83953786e-01 
 3.31131121e+00,-8.02212057e-01 
 3.38844156e+00,-8.20895448e-01 
 3.46736850e+00,-8.40013850e-01 
 3.54813389e+00,-8.59577384e-01 
 3.63078055e+00,-8.79596404e-01 
 3.71535229e+00,-9.00081504e-01 
 3.80189396e+00,-9.21043525e-01 
 3.89045145e+00,-9.42493558e-01 
 3.98107171e+00,-9.64442954e-01 
 4.07380278e+00,-9.86903324e-01 
 4.16869383e+00,-1.00988655e+00 
 4.26579519e+00,-1.03340479e+00 
 4.36515832e+00,-1.05747047e+00 
 4.46683592e+00,-1.08209633e+00 
 4.57088190e+00,-1.10729539e+00 
 4.67735141e+00,-1.13308097e+00 
 4.78630092e+00,-1.15946669e+00 
 4.89778819e+00,-1.18646650e+00 
 5.01187234e+00,-1.21409468e+00 
 5.12861384e+00,-1.24236582e+00 
 5.24807460e+00,-1.27129485e+00 
 5.37031796e+00,-1.30089705e+00 
 5.49540874e+00,-1.33118805e+00 
 5.62341325e+00,-1.36218385e+00 
 5.75439937e+00,-1.39390082e+00 
 5.88843655e+00,-1.42635568e+00 
 6.02559586e+00,-1.45956556e+00 
 6.16595002e+00,-1.49354799e+00 
 6.30957344e+00,-1.52832088e+00 
 6.45654229e+00,-1.56390257e+00 
 6.60693448e+00,-1.60031181e+00 
 6.76082975e+00,-1.63756779e+00 
 6.91830971e+00,-1.67569015e+00 
 7.07945784e+00,-1.71469895e+00 
 7.24435960e+00,-1.75461474e+00 
 7.41310241e+00,-1.79545852e+00 
 7.58577575e+00,-1.83725178e+00 
 7.76247117e+00,-1.88001651e+00 
 7.94328235e+00,-1.92377519e+00 
 8.12830516e+00,-1.96855082e+00 
 8.31763771e+00,-2.01436691e+00 
 8.51138038e+00,-2.06124753e+00 
 8.70963590e+00,-2.10921728e+00 
 8.91250938e+00,-2.15830132e+00 
 9.12010839e+00,-2.20852540e+00 
 9.33254301e+00,-2.25991584e+00 
 9.54992586e+00,-2.31249954e+00 
 9.77237221e+00,-2.36630404e+00 
 1.00000000e+01,-2.42135748e+00 
 1.02329299e+01,-2.47768866e+00 
 1.04712855e+01,-2.53532699e+00 
 1.07151931e+01,-2.59430257e+00 
 1.09647820e+01,-2.65464618e+00 
 1.12201845e+01,-2.71638927e+00 
 1.14815362e+01,-2.77956400e+00 
 1.17489755e+01,-2.84420326e+00 
 1.20226443e+01,-2.91034066e+00 
 1.23026877e+01,-2.97801056e+00 
 1.25892541e+01,-3.04724809e+00 
 1.28824955e+01,-3.11808915e+00 
 1.31825674e+01,-3.19057042e+00 
 1.34896288e+01,-3.26472942e+00 
 1.38038426e+01,-3.34060447e+00 
 1.41253754e+01,-3.41823473e+00 
 1.44543977e+01,-3.49766022e+00 
 1.47910839e+01,-3.57892184e+00 
 1.51356125e+01,-3.66206136e+00 
 1.54881662e+01,-3.74712147e+00 
 1.58489319e+01,-3.83414575e+00 
 1.62181010e+01,-3.92317875e+00 
 1.65958691e+01,-4.01426595e+00 
 1.69824365e+01,-4.10745381e+00 
 1.73780083e+01,-4.20278976e+00 
 1.77827941e+01,-4.30032223e+00 
 1.81970086e+01,-4.40010068e+00 
 1.86208714e+01,-4.50217559e+00 
 1.90546072e+01,-4.60659849e+00 
 1.94984460e+01,-4.71342196e+00 
 1.99526231e+01,-4.82269968e+00 
 2.04173794e+01,-4.93448640e+00 
 2.08929613e+01,-5.04883799e+00 
 2.13796209e+01,-5.16581143e+00 
 2.18776162e+01,-5.28546484e+00 
 2.23872114e+01,-5.40785749e+00 
 2.29086765e+01,-5.53304979e+00 
 2.34422882e+01,-5.66110335e+00 
 2.39883292e+01,-5.79208094e+00 
 2.45470892e+01,-5.92604653e+00 
 2.51188643e+01,-6.06306528e+00 
 2.57039578e+01,-6.20320357e+00 
 2.63026799e+01,-6.34652900e+00 
 2.69153480e+01,-6.49311037e+00 
 2.75422870e+01,-6.64301774e+00 
 2.81838293e+01,-6.79632236e+00 
 2.88403150e+01,-6.95309674e+00 
 2.95120923e+01,-7.11341460e+00 
 3.01995172e+01,-7.27735091e+00 
 3.09029543e+01,-7.44498184e+00 
 3.16227766e+01,-7.61638478e+00 
 3.23593657e+01,-7.79163834e+00 
 3.31131121e+01,-7.97082232e+00 
 3.38844156e+01,-8.15401769e+00 
 3.46736850e+01,-8.34130659e+00 
 3.54813389e+01,-8.53277232e+00 
 3.63078055e+01,-8.72849927e+00 
 3.71535229e+01,-8.92857294e+00 
 3.80189396e+01,-9.13307988e+00 
 3.89045145e+01,-9.34210768e+00 
 3.98107171e+01,-9.55574489e+00 
 4.07380278e+01,-9.77408102e+00 
 4.16869383e+01,-9.99720644e+00 
 4.26579519e+01,-1.02252124e+01 
 4.36515832e+01,-1.04581909e+01 
 4.46683592e+01,-1.06962345e+01 
 4.57088190e+01,-1.09394367e+01 
 4.67735141e+01,-1.11878914e+01 
 4.78630092e+01,-1.14416927e+01 
 4.89778819e+01,-1.17009356e+01 
 5.01187234e+01,-1.19657149e+01 
 5.12861384e+01,-1.22361257e+01 
 5.24807460e+01,-1.25122633e+01 
 5.37031796e+01,-1.27942227e+01 
 5.49540874e+01,-1.30820988e+01 
 5.62341325e+01,-1.33759860e+01 
 5.75439937e+01,-1.36759782e+01 
 5.88843655e+01,-1.39821688e+01 
 6.02559586e+01,-1.42946500e+01 
 6.16595002e+01,-1.46135133e+01 
 6.30957344e+01,-1.49388485e+01 
 6.45654229e+01,-1.52707442e+01 
 6.60693448e+01,-1.56092873e+01 
 6.76082975e+01,-1.59545627e+01 
 6.91830971e+01,-1.63066532e+01 
 7.07945784e+01,-1.66656389e+01 
 7.24435960e+01,-1.70315974e+01 
 7.41310241e+01,-1.74046034e+01 
 7.58577575e+01,-1.77847280e+01 
 7.76247117e+01,-1.81720389e+01 
 7.94328235e+01,-1.85665999e+01 
 8.12830516e+01,-1.89684703e+01 
 8.31763771e+01,-1.93777050e+01 
 8.51138038e+01,-1.97943541e+01 
 8.70963590e+01,-2.02184619e+01 
 8.91250938e+01,-2.06500676e+01 
 9.12010839e+01,-2.10892039e+01 
 9.33254301e+01,-2.15358972e+01 
 9.54992586e+01,-2.19901671e+01 
 9.77237221e+01,-2.24520260e+01 
 1.00000000e+02,-2.29214786e+01 
 1.02329299e+02,-2.33985216e+01 
 1.04712855e+02,-2.38831434e+01 
 1.07151931e+02,-2.43753234e+01 
 1.09647820e+02,-2.48750320e+01 
 1.12201845e+02,-2.53822301e+01 
 1.14815362e+02,-2.58968685e+01 
 1.17489755e+02,-2.64188879e+01 
 1.20226443e+02,-2.69482183e+01 
 1.23026877e+02,-2.74847789e+01 
 1.25892541e+02,-2.80284778e+01 
 1.28824955e+02,-2.85792114e+01 
 1.31825674e+02,-2.91368647e+01 
 1.34896288e+02,-2.97013106e+01 
 1.38038426e+02,-3.02724103e+01 
 1.41253754e+02,-3.08500125e+01 
 1.44543977e+02,-3.14339538e+01 
 1.47910839e+02,-3.20240587e+01 
 1.51356125e+02,-3.26201391e+01 
 1.54881662e+02,-3.32219950e+01 
 1.58489319e+02,-3.38294143e+01 
 1.62181010e+02,-3.44421728e+01 
 1.65958691e+02,-3.50600347e+01 
 1.69824365e+02,-3.56827529e+01 
 1.73780083e+02,-3.63100690e+01 
 1.77827941e+02,-3.69417141e+01 
 1.81970086e+02,-3.75774090e+01 
 1.86208714e+02,-3.82168648e+01 
 1.90546072e+02,-3.88597833e+01 
 1.94984460e+02,-3.95058578e+01 
 1.99526231e+02,-4.01547737e+01 
 2.04173794e+02,-4.08062093e+01 
 2.08929613e+02,-4.14598363e+01 
 2.13796209e+02,-4.21153208e+01 
 2.18776162e+02,-4.27723241e+01 
 2.23872114e+02,-4.34305034e+01 
 2.29086765e+02,-4.40895130e+01 
 2.34422882e+02,-4.47490050e+01 
 2.39883292e+02,-4.54086299e+01 
 2.45470892e+02,-4.60680383e+01 
 2.51188643e+02,-4.67268811e+01 
 2.57039578e+02,-4.73848107e+01 
 2.63026799e+02,-4.80414821e+01 
 2.69153480e+02,-4.86965533e+01 
 2.75422870e+02,-4.93496867e+01 
 2.81838293e+02,-5.00005498e+01 
 2.88403150e+02,-5.06488156e+01 
 2.95120923e+02,-5.12941642e+01 
 3.01995172e+02,-5.19362827e+01 
 3.09029543e+02,-5.25748665e+01 
 3.16227766e+02,-5.32096195e+01 
 3.23593657e+02,-5.38402550e+01 
 3.31131121e+02,-5.44664964e+01 
 3.38844156e+02,-5.50880770e+01 
 3.46736850e+02,-5.57047414e+01 
 3.54813389e+02,-5.63162449e+01 
 3.63078055e+02,-5.69223545e+01 
 3.71535229e+02,-5.75228490e+01 
 3.80189396e+02,-5.81175191e+01 
 3.89045145e+02,-5.87061676e+01 
 3.98107171e+02,-5.92886095e+01 
 4.07380278e+02,-5.98646720e+01 
 4.16869383e+02,-6.04341948e+01 
 4.26579519e+02,-6.09970296e+01 
 4.36515832e+02,-6.15530403e+01 
 4.46683592e+02,-6.21021027e+01 
 4.57088190e+02,-6.26441046e+01 
 4.67735141e+02,-6.31789453e+01 
 4.78630092e+02,-6.37065354e+01 
 4.89778819e+02,-6.42267968e+01 
 5.01187234e+02,-6.47396620e+01 
 5.12861384e+02,-6.52450743e+01 
 5.24807460e+02,-6.57429869e+01 
 5.37031796e+02,-6.62333629e+01 
 5.49540874e+02,-6.67161750e+01 
 5.62341325e+02,-6.71914047e+01 
 5.75439937e+02,-6.76590425e+01 
 5.88843655e+02,-6.81190870e+01 
 6.02559586e+02,-6.85715449e+01 
 6.16595002e+02,-6.90164301e+01 
 6.30957344e+02,-6.94537640e+01 
 6.45654229e+02,-6.98835746e+01 
 6.60693448e+02,-7.03058961e+01 
 6.76082975e+02,-7.07207690e+01 
 6.91830971e+02,-7.11282390e+01 
 7.07945784e+02,-7.15283574e+01 
 7.24435960e+02,-7.19211801e+01 
 7.41310241e+02,-7.23067677e+01 
 7.58577575e+02,-7.26851847e+01 
 7.76247117e+02,-7.30564998e+01 
 7.94328235e+02,-7.34207851e+01 
 8.12830516e+02,-7.37781158e+01 
 8.31763771e+02,-7.41285701e+01 
 8.51138038e+02,-7.44722290e+01 
 8.70963590e+02,-7.48091757e+01 
 8.91250938e+02,-7.51394956e+01 
 9.12010839e+02,-7.54632759e+01 
 9.33254301e+02,-7.57806057e+01 
 9.54992586e+02,-7.60915752e+01 
 9.77237221e+02,-7.63962760e+01 
 1.00000000e+03,-7.66948008e+01 
 1.02329299e+03,-7.69872428e+01 
 1.04712855e+03,-7.72736963e+01 
 1.07151931e+03,-7.75542557e+01 
 1.09647820e+03,-7.78290160e+01 
 1.12201845e+03,-7.80980724e+01 
 1.14815362e+03,-7.83615199e+01 
 1.17489755e+03,-7.86194536e+01 
 1.20226443e+03,-7.88719686e+01 
 1.23026877e+03,-7.91191594e+01 
 1.25892541e+03,-7.93611203e+01 
 1.28824955e+03,-7.95979450e+01 
 1.31825674e+03,-7.98297267e+01 
 1.34896288e+03,-8.00565579e+01 
 1.38038426e+03,-8.02785305e+01 
 1.41253754e+03,-8.04957354e+01 
 1.44543977e+03,-8.07082630e+01 
 1.47910839e+03,-8.09162023e+01 
 1.51356125e+03,-8.11196418e+01 
 1.54881662e+03,-8.13186689e+01 
 1.58489319e+03,-8.15133697e+01 
 1.62181010e+03,-8.17038296e+01 
 1.65958691e+03,-8.18901327e+01 
 1.69824365e+03,-8.20723620e+01 
 1.73780083e+03,-8.22505993e+01 
 1.77827941e+03,-8.24249254e+01 
 1.81970086e+03,-8.25954198e+01 
 1.86208714e+03,-8.27621607e+01 
 1.90546072e+03,-8.29252254e+01 
 1.94984460e+03,-8.30846897e+01 
 1.99526231e+03,-8.32406282e+01 
